[
  {
    "tbs_prim_AP_SAT_AB" : {
      "type" : "data.frame",
      "description" : "Tabla Primaria",
      "help": "Help ref",
      "expectedColumns" : ["nro", "caratula", "tproc", "realizada",
      "trato", "depurac_prueba", "intent_concil", "instalaciones"],
      "expectedTypes" : ["character","character","character","character",
                         "character","character","character","character"]
    }

  }
]
