{
  "tbs_prim_AUDIPC": {
    "type": "data.frame",
    "description": "Tabla Primaria",
    "help": "Help ref",
    "expectedColumns": ["nro", "caratula", "tproc", "tdelito",
                        "asist", "finicio", "duracm", "duracb",
                        "fing", "ffa", "fea", "esta",
                        "ra"],
    "expectedTypes": ["character", "character", "character", "character",
                      "character", "character", "character", "character",
                      "character", "character", "character", "character",
                      "character"]
  }
}
