[
  {
    "tbs_prim_AUDIL" : {
      "type" : "data.frame",
      "description" : "Tabla Primaria",
      "help": "Help ref",
      "expectedColumns" : ["nro", "caratula", "tproc", "asist",
                           "finicio", "duracm", "duracb", "ffa",
                           "fea", "ta", "ra", "esta",
                           "jaud", "mat", "justiables"],
      "expectedTypes" : ["character", "character", "character", "character",
                         "character", "character", "character", "character",
                         "character", "character", "character", "character",
                         "character", "character", "character"]
    }

  }
]
