{
  "tbs_prim_AUDIPM": {
    "type": "data.frame",
    "description": "Tabla Primaria",
    "help": "Help ref",
    "expectedColumns": ["nro", "caratula", "tproc", "finicio",
                        "duracm", "duracb", "ffa", "fea",
                        "ta", "esta", "jaud"],

    "expectedTypes": ["character", "character", "character", "character",
                      "character", "character", "character", "character",
                      "character", "character", "character"]
  }
}
