{
  "tbs_prim_AUDIP_v2": {
    "type": "data.frame",
    "description": "Tabla Primaria",
    "help": "Help ref",
    "expectedColumns": ["nro", "caratula", "tproc", "duracm",
                        "duracb", "fsaud", "ffaud", "fraud",
                        "taud", "estaud", "demora", "tdemora",
                        "audorg", "jvact", "integ", "cdeten",
                        "resp", "radic"],
    "expectedTypes": ["character", "character", "character", "character",
                      "character", "character", "character", "character",
                      "character", "character", "character", "character",
                      "character", "character", "character", "character",
                      "character", "character"]
  }
}
