[
  {
    "tbs_prim_AUDICAD" : {
      "type" : "data.frame",
      "description" : "Tabla Primaria",
      "help": "Help ref",
      "expectedColumns" : ["nro", "caratula", "tproc", "finicio",
                           "duracm", "duracb", "ffaud", "fraud",
                           "estaud", "mact"],
      "expectedTypes" : ["character", "character", "character", "character",
                         "character", "character", "character", "character",
                         "character", "character"] 
    }

  }
]
