[
  {
    "tbs_prim_AVC_SAT_US_L8" : {
      "type" : "data.frame",
      "description" : "Tabla Primaria",
      "help": "Help ref",
      "expectedColumns" : ["nro", "caratula", "tproc", "realizada",
                           "trato", "compresion", "escucha", "duracion",
                           "instalacio"],
      "expectedTypes" : ["character", "character", "character", "character",
                         "character", "character", "character", "character",
                         "character"]
    }

  }
]
