[
  {
    "tbs_prim_CADRIA3C" : {
      "type" : "data.frame",
      "description" : "Tabla Primaria",
      "help": "Help ref",
      "expectedColumns" : ["nro", "caratula", "tproc", "as", "ccon", "finicio",
                          "voc1", "fdesp1", "voc2", "fdesp2", "voc3", "fdesp3",
                          "fvenc1", "fvenc2", "fres", "tres", "torig"],
      "expectedTypes" : ["character", "character", "character", "character",
                         "character", "character", "character", "character",
                         "character", "character", "character", "character",
                         "character", "character", "character", "character",
                         "character"]
    },
    "ril_iniciados": {
      "type" : "integer",
      "description" : "RIL iniciados",
      "help": "Help ref",
      "minimum": 0
    },
    "ril_la_iniciados": {
      "type" : "integer",
      "description" : "RIL LA iniciados",
      "help": "Help ref",
      "minimum": 0
    },
    "honorarios_iniciados": {
      "type" : "integer",
      "description" : "Honorarios iniciados",
      "help": "Help ref",
      "minimum": 0
    },
    "quejas_iniciados": {
      "type" : "integer",
      "description" : "Recursos de Queja iniciados",
      "help": "Help ref",
      "minimum": 0
    },
    "rex_iniciados": {
      "type" : "integer",
      "description" : "REX iniciados",
      "help": "Help ref",
      "minimum": 0
    },
    "otros_iniciados": {
      "type" : "integer",
      "description" : "Otros iniciados",
      "help": "Help ref",
      "minimum": 0
    },
    "causas_archivadas": {
      "type" : "integer",
      "description" : "Causas Archivadas",
      "help": "Help ref",
      "minimum": 0
    }
  }
]

