[
  {
    "tbs_prim_CADR1C" : {
      "type" : "data.frame",
      "description" : "Tabla Primaria",
      "help": "Help ref",
      "expectedColumns" : ["nro", "caratula", "tproc", "as", "ccon", "finicio",
                           "fdesp", "fvenc1", "fvenc2", "fres", "tres", "mat",
                           "justiciables", "reccap"],
      "expectedTypes" : ["character", "character", "character", "character",
                        "character", "character", "character", "character",
                        "character", "character", "character", "character",
                        "character", "character"]
    }
  }
]
