[
  {
    "tbs_prim_CADRA23" : {
      "type" : "data.frame",
      "description" : "Tabla Primaria",
      "help": "Help ref",
      "expectedColumns" : ["nro","caratula","tproc","as","finicio","fdesp",
                          "fvenc1","fvenc2","fres","tres"],
      "expectedTypes" : ["character", "character", "character", "character",
                        "character", "character", "character", "character",
                        "character", "character"]
    },
    "causas_archivadas": {
      "type" : "integer",
      "description" : "Causas Archivadas",
      "help": "Help ref",
      "minimum": 0
    }
  }
]
