[
  {
    "tbs_prim_CADR2C" : {
      "type" : "data.frame",
      "description" : "Tabla Primaria",
      "help": "Help ref",
      "expectedColumns" : ["nro", "caratula", "tproc", "as", "ccon", "finicio",
                          "ordv", "fdesp1", "feg1", "fdesp2", "feg2", "fdesp3",
                          "feg3", "fvenc1", "fvenc2", "fres", "tres", "mat",
                          "jact"],
      "expectedTypes" : ["character", "character", "character", "character",
                         "character", "character", "character", "character",
                         "character", "character", "character", "character",
                         "character", "character", "character", "character",
                         "character", "character", "character"]
    }
  }

]
