[
  {
    "tbs_prim_CADRIA1CM" : {
      "type" : "data.frame",
      "description" : "Tabla Primaria",
      "help": "Help ref",
      "expectedColumns" : ["nro", "caratula", "tproc", "as", "ccon", "finicio",
                           "fdesp", "fvenc1", "fvenc2", "fres", "tres", "mat",
                           "justiciables", "reccap"],
      "expectedTypes" : ["character", "character", "character", "character",
                         "character", "character", "character", "character",
                         "character", "character", "character", "character",
                         "character", "character"]
    },
    "causas_inic_ppales_civil": {
      "type" : "integer",
      "description" : "Causas Iniciadas Principales - Civil",
      "help": "Help ref",
      "minimum": 0
    },
    "causas_inic_noppales_civil": {
      "type" : "integer",
      "description" : "Causas Iniciadas No Principales - Civil",
      "help": "Help ref",
      "minimum": 0
    },
    "causas_archivadas_civil": {
      "type" : "integer",
      "description" : "Causas Archivadas - Civil",
      "help": "Help ref",
      "minimum": 0
    },
    "causas_inic_ppales_laboral": {
      "type" : "integer",
      "description" : "Causas Iniciadas Principales - Laboral",
      "help": "Help ref",
      "minimum": 0
    },
    "causas_inic_noppales_laboral": {
      "type" : "integer",
      "description" : "Causas Iniciadas No Principales - Laboral",
      "help": "Help ref",
      "minimum": 0
    },
    "causas_archivadas_laboral": {
      "type" : "integer",
      "description" : "Causas Archivadas - Laboral",
      "help": "Help ref",
      "minimum": 0
    },
    "causas_inic_ppales_familia": {
      "type" : "integer",
      "description" : "Causas Iniciadas Principales - familia",
      "help": "Help ref",
      "minimum": 0
    },
    "causas_inic_noppales_familia": {
      "type" : "integer",
      "description" : "Causas Iniciadas No Principales - familia",
      "help": "Help ref",
      "minimum": 0
    },
    "causas_archivadas_familia": {
      "type" : "integer",
      "description" : "Causas Archivadas - familia",
      "help": "Help ref",
      "minimum": 0
    }

  }
]
