{
  "tbs_prim_CADUR3C": {
    "type": "data.frame",
    "description": "Tabla Primaria",
    "help": "Help ref",
    "expectedColumns": ["nro", "activo", "caratula", "tproc",
                        "devol", "fing", "fresa", "fress",
                        "fcore", "movt", "justiciables"],
    "expectedTypes": ["character", "character", "character", "character",
                      "character", "character", "character", "character",
                      "character", "character", "character"]
  }
}
