{
  "tbs_prim_CARCHCAD": {
    "type": "data.frame",
    "description": "Tabla Primaria",
    "help": "Help ref",
    "expectedColumns": ["nro", "caratula", "tproc", "finicio",
                        "farch"],
    "expectedTypes": ["character", "character", "character", "character",
                      "character"]
  }
}