[
  {
    "tbs_prim_CETAL_XL" : {
      "type" : "data.frame",
      "description" : "Tabla Primaria",
      "help": "Help ref",
      "expectedColumns" : ["nro", "caratula", "tproc", "finicio", "ffin",
                           "fmov", "desc", "fmov_treg_fres", "movt"],
      "expectedTypes" : ["character","character","character","character", "character",
                         "character","character","character","character"]
    }

  }
]
