[
  {
    "causas_en_tramite": {
      "type" : "integer",
      "description" : "Causas en trámite al 31/12 del año que se informa (causas que al último día del período considerado permanecen en trámite, independientemente del año de ingreso al sistema judicial).",
      "help": "Help ref",
      "minimum": 0
    },
    "activas_ultimo_semestre": {
      "type" : "integer",
      "description" : "Causas activas en el último semestre (causas que tuvieron al menos un movimiento procesal en los últimos seis meses)",
      "help": "Help ref",
      "minimum": 0
    },
    "activas_ultimos_dos_anios": {
      "type" : "integer",
      "description" : "Causas activas en los últimos dos años (causas que tuvieron al menos un movimiento procesal en los últimos dos años)",
      "help": "Help ref",
      "minimum": 0
    }

  }
]
