{
  "tbs_prim_CICAD": {
    "type": "data.frame",
    "description": "Tabla Primaria",
    "help": "Help ref",
    "expectedColumns": ["nro", "caratula", "tproc", "finicioad",
                        "finicio", "freclam", "mreclam", "pcolect",
                        "exptac", "justiciables"],
    "expectedTypes": ["character", "character", "character", "character",
                      "character", "character", "character", "character",
                      "character", "character"]
  }
}
