[
  {
    "tbs_prim_CIE2" : {
      "type" : "data.frame",
      "description" : "Tabla Primaria",
      "help": "Help ref",
      "expectedColumns" : ["nro1", "nro2", "caratula", "tproc",
                           "ibs", "fecha"],
      "expectedTypes" : ["character", "character", "character", "character",
                         "character", "character"]
    }
  }

]
