{
  "tbs_prim_CIN3PC": {
    "type": "data.frame",
    "description": "Tabla Primaria",
    "help": "Help ref",
    "expectedColumns": ["nro", "caratula", "tproc", "finicio", "farch",
                        "fhecho","id_personas", "resp"],
    "expectedTypes": ["character", "character", "character", "character",
                      "character", "character", "character", "character"]
  }
}
