{
  "tbs_prim_CINC1FP" : {
    "type" : "data.frame",
    "description" : "Tabla Primaria",
    "help": "Help ref",
    "expectedColumns" : ["nro", "caratula", "tproc", "finicio", "fmov",
                         "desc", "movt"],
    "expectedTypes" : ["character","character","character","character",
                       "character","character","character"]
  }

}


