{
  "tbs_prim_CINC3P" : {
    "type" : "data.frame",
    "description" : "Tabla Primaria",
    "help": "Help ref",
    "expectedColumns" : ["nro", "caratula", "tproc", "tdelito",
                         "finicio", "origen", "justiciables"],
    "expectedTypes" : ["character","character","character","character",
                       "character","character","character"]
  }

}
