[
  {
    "ril_iniciados": {
      "type" : "integer",
      "description" : "RIL iniciados",
      "help": "Help ref",
      "minimum": 0
    },
    "ril_la_iniciados": {
      "type" : "integer",
      "description" : "RIL LA iniciados",
      "help": "Help ref",
      "minimum": 0
    },
    "honorarios_iniciados": {
      "type" : "integer",
      "description" : "Honorarios iniciados",
      "help": "Help ref",
      "minimum": 0
    },
    "quejas_iniciados": {
      "type" : "integer",
      "description" : "Recursos de Queja iniciados",
      "help": "Help ref",
      "minimum": 0
    },
    "rex_iniciados": {
      "type" : "integer",
      "description" : "REX iniciados",
      "help": "Help ref",
      "minimum": 0
    },
    "otros_iniciados": {
      "type" : "integer",
      "description" : "Otros iniciados",
      "help": "Help ref",
      "minimum": 0
    }
  }
]

