[
  {
    "tbs_prim_CITIPM3" : {
      "type" : "data.frame",
      "description" : "Tabla Primaria",
      "help": "Help ref",
      "expectedColumns" : ["caratula", "tipo de proceso", "fecha inicio"],
      "expectedTypes" : ["character", "character", "character"] 
    },
    "causas_iniciadas": {
      "type" : "integer",
      "description" : "Causas Iniciadas",
      "help": "Help ref",
      "minimum": 0
    }

  }
]
