[
  {
    "tbs_prim_IGOFPER" : {
      "type" : "data.frame",
      "description" : "Tabla Primaria",
      "help": "Help ref",
      "expectedColumns" : ["nro_int", "fingreso", "tipo", "nro",
                           "caratula", "organismo", "puntos", "parcial",
                           "fdevol", "perito"],
      "expectedTypes" : ["character", "character", "character", "character",
                         "character", "character", "character", "character",
                         "character", "character"]
    }

  }
]
