[
  {
    "tbs_prim_IGPROB" : {
      "type" : "data.frame",
      "description" : "Tabla Primaria",
      "help": "Help ref",
      "expectedColumns" : ["nro_om", "nro_og",	"caratula",	"tproc",
                           "ottproc",	"gpo",	"resp",	"partp",
                           "fiscm", "finicio", "ffin", "fhecho",
                           "fmov", "desc", "fmov_treg_fres", "movt",
                           "estado", "justiciable", "vincul",	"pr_ed_sex"],
      "expectedTypes" : ["character", "character", "character", "character",
                         "character", "character", "character", "character",
                         "character", "character", "character", "character",
                         "character", "character", "character", "character",
                         "character", "character", "character", "character"]
    }

  }
]
