{
  "tbs_prim_LFDMF": {
    "type": "data.frame",
    "description": "Tabla Primaria",
    "help": "Help ref",
    "expectedColumns": ["NROEXPTE","CARATULA","JUSE","JURISD","TIPO_NTERV","F_INGR","F_EXA","F_INF","TIPO_EXA","TEC_EVI","ASISTE", "PROF1", "PROF2","PROF3"],
    "expectedTypes": ["character", "character", "character", "character",
                      "character", "character"]
  }
}
