{
  "tbs_prim_RESOLPT": {
    "type": "data.frame",
    "description": "Tabla Primaria",
    "help": "Help ref",
    "expectedColumns": ["nro", "caratula", "tproc", "ntrib", "fingj", "ffdebab",
                        "frdebab", "fres", "fcc", "vact", "tres", "lhech",
                        "justiciable", "resp", "radic"],
    "expectedTypes": ["character", "character", "character", "character",
                      "character", "character", "character", "character",
                      "character", "character", "character", "character",
                      "character", "character", "character"]
  }
}
