{
  "tbs_prim_RESOLPG": {
    "type": "data.frame",
    "description": "Tabla Primaria",
    "help": "Help ref",
    "expectedColumns": ["nro", "caratula", "tproc", "qpac", "cmen", "fhech",
                        "ficau", "fmcoer", "fupp", "fpipp", "frjui", "fres",
                        "tres", "tsent", "tsob", "jact", "impt", "lhech",
                        "justiciable", "resp", "radic"],
    "expectedTypes": ["character", "character", "character", "character",
                      "character", "character", "character", "character",
                      "character", "character", "character", "character",
                      "character", "character", "character", "character",
                      "character", "character", "character", "character",
                      "character"]
  }
}
