{
  "procesos": [
    "APREMIOS",
    "BENEFICIOS LIT. SIN GASTOS",
    "COBRO DE PESOS",
    "EJECUTIVOS",
    "EJECUCIONES ESPECIALES",
    "EJECUCIONES DE SENTENCIA",
    "MONITORIO APREMIO",
    "MONITORIO EJECUTIVO",
    "PREPARACION DE LA VIA EJECUTIVA",
    "PREPARACION DE LA VIA MONITORIA",
    "PROCESOS CAUTELARES",
    "PROCESOS CONSTITUCIONALES (AMPAROS)",
    "PROCESOS LIB.IV TIT.XI - CPCC",
    "PROCESOS NO PREVISTOS (RESIDUAL)",
    "PROCESOS NO PREVISTOS",
    "VIOLENCIA DE GÉNERO",
    "VIOLENCIA DE GÈNERO",
    "VIOLENCIA DE GENERO",
    "VIOLENCIA FAMILIAR",
    "MONITORIO"
  ],
  "tramites": [
    "CERTIFICACIONES DE COPIA",
    "CERTIFICACIONES DE COPIAS",
    "CERTIFICACIONES DE FIRMA",
    "CERTIFICACIONES DE FIRMAS",
    "CERTIFICACION DE COPIA",
    "CERTIFICACIÓN DE COPIA",
    "CERTIFICACIÒN DE COPIA",
    "CERTIFICACION DE COPIAS",
    "CERTIFICACIÓN DE COPIAS",
    "CERTIFICACIÒN DE COPIAS",
    "CERTIFICACION DE FIRMA",
    "CERTIFICACIÓN DE FIRMA",
    "CERTIFICACIÒN DE FIRMA",
    "CERTIFICACION DE FIRMAS",
    "CERTIFICACIÓN DE FIRMAS",
    "CERTIFICACIÒN DE FIRMAS",
    "CONCILIACIÓN (LOPJ)",
    "CONCILIACIÒN (LOPJ)",
    "CONCILIACION (LOPJ)",
    "CONTROL DE MEDIDAS (PROBATION)",
    "DILIGENCIAS VARIAS",
    "INFORMACIÓN SUMARIA",
    "INFORMACIÒN SUMARIA",
    "INFORMACION SUMARIA",
    "MEDIDAS",
    "MEDIDAS CONSERVATORIAS (SUCESORIOS)",
    "MEDIDAS PRECAUTORIAS (LOPJ)",
    "CEDULAS LEY  22172",
    "MANDAMIENTOS LEY  22172"
  ]
}
