[
  {
    "tbs_prim_TRAN_ESTC_5" : {
      "type" : "data.frame",
      "description" : "Tabla Primaria",
      "help": "Help ref",
      "expectedColumns" : ["nro",	"caratula",	"tproc",	"finicio",	"fmovp",
                          "descp", "fmovexp", "descep", "grupo", "estado",
                          "letra", 	"letra_salida", "letra_regresa"],
      "expectedTypes" : ["character","character","character","character",
                          "character","character","character","character",
                          "character","character","character","character",
                          "character"]
    }

  }
]
