nro	caratula	tproc	as	ccon	finicio	fdesp	fvenc1	fvenc2	fres	tres	mat	justiciables	reccap
17157	ALBANESSE GUADALUPE SONIA	SUCESORIO AB INTESTATO	a	0	16/12/2016	24/10/2017	06/11/2017	21/11/2017		10		ALBANESSE GUADALUPE SONIA$11.555.505$CAUSANTE$%DI GIORGIO MARIO ALBERTO$11.676.549$HEREDERO$%DI GIORGIO DIEGO FABIAN$26.977.772$HEREDERO$%DI GIORGIO PATRICIO ALBERTO$30.292.519$HEREDERO$%	0,00
17287	ALBORNOZ HIPOLITO RICARDO Y OTRA C/ MARTINEZ JUAN CARLOS	BENEFICIO DE LITIGAR SIN GASTOS	A	1	17/04/2017	20/09/2017	04/10/2017	19/10/2017	02/10/2017	10		ALBORNOZ HIPOLITO RICARDO$29.620.846$ACTORA$%RIVAS ANALIA SOLEDAD$27.359.705$ACTORA$%MARTINEZ JUAN CARLOS$6.079.059$DEMANDADA$%	0,00
17156	ALVAREZ ROGELIO OSCAR	SUCESORIO AB INTESTATO	A	0	15/12/2016	20/09/2017	04/10/2017	19/10/2017	12/10/2017	10		ALVAREZ LUCAS EZEQUIEL$42.731.624$HEREDERO$%ALVAREZ ROJAS OSCAR ANDRES$34.453.483$HEREDERO$%ALVAREZ ROGELIO OSCAR$18.071.518$CAUSANTE$%ROJAS MARIA DEL CARMEN$23.279.784$HEREDERO$%ALVAREZ ELIZABETH ALEJANDRA$35.442.367$HEREDERO$%ALVAREZ GASTON ALEJANDRO$38.569.991$HEREDERO$%	0,00
16728	AQUINO PAOLA S. C/ SCHWEITZER CINTIA E. Y OTRA DESALOJO Y C. DE ALQUILERES	EJECUCION DE CONVENIO	s	1	10/03/2015	05/10/2017	20/10/2017	06/11/2017	10/10/2017			MINETTI PABLO MARTIN$$MEDIADOR$%SCHWEITZER ALICIA REBECA GRACIELA$5.015.745$DEMANDADA$%SCHWEITZER CINTIA EMILCE$25.032.954$DEMANDADA$%AQUINO PAOLA SILVINA$25.307.727$ACTORA$%	0,00
15348	ARUGA HUMBERTO FLORENTINO	SUCESORIO AB INTESTATO	A	0	16/04/2013	13/09/2017	26/09/2017	11/10/2017	10/10/2017	0		ABOGADOS EXTRA $$PERITO$%PEREYRA MARCELA CARINA$$PERITO$%ARUGA GUILLERMO$$HEREDERO FALLECIDO$%ARUGA GUSTAVO FABIAN$22.165.658$HEREDERO$%PAGANINI NILDA BELKY CRISOLITA$6.841.549$HEREDERO$%ARUGA HUMBERTO FLORENTINO$5.932.970$CAUSANTE$%	0,00
16584	ASOC. MUTUAL DEL CENTRO REG. C/ ZARATE CANDIDA G. ORDINARIO	EJECUCION DE SENTENCIA Y HONORARIOS	s	0	18/09/2015	27/09/2017	12/10/2017	30/10/2017	02/10/2017			KLIMBOVSKY PERLA NATALIA$27.960.128$POR DERECHO PROPIO$%VILLA VIVIANA INES$22.889.255$MEDIADOR$%ZARATE CANDIDA  GRACIELA$21.424.357$DEMANDADA$%ASOCIACION MUTUAL DEL CENTRO REGIONAL $$ACTORA$%	0,00
